Perl Test Automation/Prob 2/mem_4_3_result.txt
Chronologic VCS simulator copyright 1991-2018
Contains Synopsys proprietary information.
Compiler version O-2018.09-SP2-3_Full64; Runtime version O-2018.09-SP2-3_Full64;  Feb 28 15:16 2020
VCD+ Writer O-2018.09-SP2-3_Full64 Copyright (c) 1991-2018 by Synopsys Inc.
001 00 0 0 0 zzz 00100000zzz 0
001 00 1 0 0 zzz 00100100zzz 0
101 00 1 1 1 001 10100111001 0
010 01 0 0 0 zzz 01001000zzz 0
010 01 1 0 0 zzz 01001100zzz 0
101 01 1 1 1 010 10101111010 0
011 10 0 0 0 zzz 01110000zzz 0
011 10 1 0 0 zzz 01110100zzz 0
101 10 1 1 1 011 10110111011 0
100 11 0 0 0 zzz 10011000zzz 0
100 11 1 0 0 zzz 10011100zzz 0
101 11 1 1 1 100 10111111100 0
101 00 1 1 1 001 10100111001 0
110 00 0 0 0 zzz 11000000zzz 0
110 00 1 0 0 zzz 11000100zzz 0
101 00 1 1 1 110 10100111110 0
101 01 1 1 1 010 10101111010 0
101 01 0 0 0 zzz 10101000zzz 0
101 01 1 0 0 zzz 10101100zzz 0
101 01 1 1 1 101 10101111101 0
101 10 1 1 1 011 10110111011 0
100 10 0 0 0 zzz 10010000zzz 0
100 10 1 0 0 zzz 10010100zzz 0
101 10 1 1 1 100 10110111100 0
101 11 1 1 1 100 10111111100 0
011 11 0 0 0 zzz 01111000zzz 0
011 11 1 0 0 zzz 01111100zzz 0
101 11 1 1 1 011 10111111011 0
101 00 1 1 1 110 10100111110 0
001 00 0 0 0 zzz 00100000zzz 0
001 00 1 0 0 zzz 00100100zzz 0
101 00 1 1 1 001 10100111001 0
101 01 1 1 1 101 10101111101 0
010 01 0 0 0 zzz 01001000zzz 0
010 01 1 0 0 zzz 01001100zzz 0
101 01 1 1 1 010 10101111010 0
101 10 1 1 1 100 10110111100 0
011 10 0 0 0 zzz 01110000zzz 0
011 10 1 0 0 zzz 01110100zzz 0
101 10 1 1 1 011 10110111011 0
101 11 1 1 1 011 10111111011 0
100 11 0 0 0 zzz 10011000zzz 0
100 11 1 0 0 zzz 10011100zzz 0
101 11 1 1 1 100 10111111100 0
Fail =           0
$finish called from file "mem_4_3_testbench.v", line 36.
$finish at simulation time                  440
           V C S   S i m u l a t i o n   R e p o r t 
Time: 440
CPU Time:      0.340 seconds;       Data structure size:   0.0Mb
Fri Feb 28 15:16:20 2020
