Sequence Detector/sim_results.txt
Chronologic VCS simulator copyright 1991-2018
Contains Synopsys proprietary information.
Compiler version O-2018.09-SP2-3_Full64; Runtime version O-2018.09-SP2-3_Full64;  Mar  9 19:00 2020
VCD+ Writer O-2018.09-SP2-3_Full64 Copyright (c) 1991-2018 by Synopsys Inc.
-------------Random Test-----------------
Reset asserted: state=000
Input History: xxxxxxxxx0, z=0, state=000
Input History: xxxxxxxx01, z=0, state=001
Input History: xxxxxxx011, z=0, state=001
Input History: xxxxxx0111, z=0, state=001
Input History: xxxxx01111, z=0, state=001
Input History: xxxx011111, z=0, state=001
Input History: xxx0111111, z=0, state=001
Input History: xx01111110, z=0, state=011
Input History: x011111101, z=0, state=001
Input History: 0111111011, z=0, state=001
Input History: 1111110110, z=0, state=011
Input History: 1111101101, z=0, state=001
Input History: 1111011011, z=0, state=001
Input History: 1110110110, z=0, state=011
Input History: 1101101101, z=0, state=001
Input History: 1011011010, z=0, state=011
Input History: 0110110101, z=0, state=001
Input History: 1101101010, z=0, state=011
Input History: 1011010101, z=0, state=001
Input History: 0110101011, z=0, state=001
Input History: 1101010110, z=0, state=011
Input History: 1010101101, z=0, state=001
Input History: 0101011010, z=0, state=011
Input History: 1010110100, z=0, state=010
Input History: 0101101000, z=0, state=000
Input History: 1011010001, z=0, state=001
Input History: 0110100010, z=0, state=011
Input History: 1101000101, z=0, state=001
Input History: 1010001011, z=0, state=001
Input History: 0100010111, z=0, state=001
Input History: 1000101111, z=0, state=001
Input History: 0001011110, z=0, state=011
Input History: 0010111100, z=0, state=010
Input History: 0101111000, z=0, state=000
Input History: 1011110000, z=0, state=000
Input History: 0111100001, z=0, state=001
Input History: 1111000010, z=0, state=011
Input History: 1110000101, z=0, state=001
Input History: 1100001011, z=0, state=001
Input History: 1000010111, z=0, state=001
Input History: 0000101111, z=0, state=001
Input History: 0001011111, z=0, state=001
Input History: 0010111110, z=0, state=011
Input History: 0101111100, z=0, state=010
Input History: 1011111001, z=0, state=110
Input History: 0111110011, z=1, state=100
Input History: 1111100111, z=0, state=001
Input History: 1111001110, z=0, state=011
Input History: 1110011100, z=0, state=010
Input History: 1100111000, z=0, state=000
Input History: 1001110000, z=0, state=000
Input History: 0011100000, z=0, state=000
Input History: 0111000001, z=0, state=001
Input History: 1110000010, z=0, state=011
Input History: 1100000100, z=0, state=010
Input History: 1000001001, z=0, state=110
Input History: 0000010011, z=1, state=100
Input History: 0000100110, z=0, state=011
Input History: 0001001100, z=0, state=010
Input History: 0010011000, z=0, state=000
Input History: 0100110000, z=0, state=000
Input History: 1001100000, z=0, state=000
Input History: 0011000001, z=0, state=001
Input History: 0110000011, z=0, state=001
Input History: 1100000111, z=0, state=001
Input History: 1000001111, z=0, state=001
Input History: 0000011111, z=0, state=001
Input History: 0000111110, z=0, state=011
Input History: 0001111100, z=0, state=010
Input History: 0011111001, z=0, state=110
Input History: 0111110011, z=1, state=100
Input History: 1111100111, z=0, state=001
Input History: 1111001110, z=0, state=011
Input History: 1110011100, z=0, state=010
Input History: 1100111001, z=0, state=110
Input History: 1001110011, z=1, state=100
Input History: 0011100110, z=0, state=011
Input History: 0111001101, z=0, state=001
Input History: 1110011011, z=0, state=001
Input History: 1100110110, z=0, state=011
Input History: 1001101101, z=0, state=001
Input History: 0011011011, z=0, state=001
Input History: 0110110111, z=0, state=001
Input History: 1101101110, z=0, state=011
Input History: 1011011101, z=0, state=001
Input History: 0110111011, z=0, state=001
Input History: 1101110110, z=0, state=011
Input History: 1011101100, z=0, state=010
Input History: 0111011000, z=0, state=000
Input History: 1110110000, z=0, state=000
Input History: 1101100001, z=0, state=001
Input History: 1011000011, z=0, state=001
Input History: 0110000110, z=0, state=011
Input History: 1100001100, z=0, state=010
Input History: 1000011001, z=0, state=110
Input History: 0000110011, z=1, state=100
Input History: 0001100111, z=0, state=001
Input History: 0011001111, z=0, state=001
Input History: 0110011111, z=0, state=001
Input History: 1100111110, z=0, state=011
Input History: 1001111101, z=0, state=001
Input History: 0011111011, z=0, state=001
Input History: 0111110111, z=0, state=001
Input History: 1111101110, z=0, state=011
Input History: 1111011100, z=0, state=010
Input History: 1110111000, z=0, state=000
Input History: 1101110000, z=0, state=000
Input History: 1011100000, z=0, state=000
Input History: 0111000000, z=0, state=000
Input History: 1110000000, z=0, state=000
Input History: 1100000001, z=0, state=001
Input History: 1000000011, z=0, state=001
Input History: 0000000111, z=0, state=001
Input History: 0000001111, z=0, state=001
Input History: 0000011111, z=0, state=001
Input History: 0000111110, z=0, state=011
Input History: 0001111101, z=0, state=001
Input History: 0011111011, z=0, state=001
Input History: 0111110110, z=0, state=011
Input History: 1111101100, z=0, state=010
Input History: 1111011001, z=0, state=110
Input History: 1110110011, z=1, state=100
Input History: 1101100110, z=0, state=011
Input History: 1011001101, z=0, state=001
Input History: 0110011011, z=0, state=001
Input History: 1100110111, z=0, state=001
Input History: 1001101111, z=0, state=001
Input History: 0011011110, z=0, state=011
Input History: 0110111100, z=0, state=010
Input History: 1101111000, z=0, state=000
Input History: 1011110001, z=0, state=001
Input History: 0111100010, z=0, state=011
Input History: 1111000100, z=0, state=010
Input History: 1110001000, z=0, state=000
Input History: 1100010001, z=0, state=001
Input History: 1000100011, z=0, state=001
Input History: 0001000110, z=0, state=011
Input History: 0010001100, z=0, state=010
Input History: 0100011001, z=0, state=110
Input History: 1000110010, z=0, state=011
Input History: 0001100100, z=0, state=010
Input History: 0011001000, z=0, state=000
Input History: 0110010001, z=0, state=001
Input History: 1100100010, z=0, state=011
Input History: 1001000100, z=0, state=010
Input History: 0010001001, z=0, state=110
Input History: 0100010010, z=0, state=011
Input History: 1000100101, z=0, state=001
Input History: 0001001011, z=0, state=001
Input History: 0010010111, z=0, state=001
Input History: 0100101111, z=0, state=001
Input History: 1001011111, z=0, state=001
Input History: 0010111110, z=0, state=011
Input History: 0101111100, z=0, state=010
Input History: 1011111000, z=0, state=000
Input History: 0111110001, z=0, state=001
Input History: 1111100010, z=0, state=011
Input History: 1111000100, z=0, state=010
Input History: 1110001001, z=0, state=110
Input History: 1100010011, z=1, state=100
Input History: 1000100110, z=0, state=011
Input History: 0001001100, z=0, state=010
Input History: 0010011000, z=0, state=000
Input History: 0100110001, z=0, state=001
Input History: 1001100011, z=0, state=001
Input History: 0011000110, z=0, state=011
Input History: 0110001100, z=0, state=010
Input History: 1100011000, z=0, state=000
Input History: 1000110001, z=0, state=001
Input History: 0001100011, z=0, state=001
Input History: 0011000110, z=0, state=011
Input History: 0110001100, z=0, state=010
Input History: 1100011000, z=0, state=000
Input History: 1000110001, z=0, state=001
Input History: 0001100010, z=0, state=011
Input History: 0011000100, z=0, state=010
Input History: 0110001001, z=0, state=110
Input History: 1100010010, z=0, state=011
Input History: 1000100100, z=0, state=010
Input History: 0001001000, z=0, state=000
Input History: 0010010001, z=0, state=001
Input History: 0100100010, z=0, state=011
Input History: 1001000101, z=0, state=001
Input History: 0010001011, z=0, state=001
Input History: 0100010110, z=0, state=011
Input History: 1000101100, z=0, state=010
Input History: 0001011000, z=0, state=000
Input History: 0010110000, z=0, state=000
Input History: 0101100001, z=0, state=001
Input History: 1011000010, z=0, state=011
Input History: 0110000100, z=0, state=010
Input History: 1100001000, z=0, state=000
Input History: 1000010000, z=0, state=000
Input History: 0000100001, z=0, state=001
Input History: 0001000011, z=0, state=001
Input History: 0010000111, z=0, state=001
Input History: 0100001110, z=0, state=011
Input History: 1000011101, z=0, state=001
Input History: 0000111011, z=0, state=001
Input History: 0001110111, z=0, state=001
Input History: 0011101110, z=0, state=011
Input History: 0111011100, z=0, state=010
Input History: 1110111001, z=0, state=110
Input History: 1101110011, z=1, state=100
Input History: 1011100111, z=0, state=001
Input History: 0111001111, z=0, state=001
Input History: 1110011111, z=0, state=001
Input History: 1100111110, z=0, state=011
Input History: 1001111101, z=0, state=001
Input History: 0011111011, z=0, state=001
Input History: 0111110110, z=0, state=011
Input History: 1111101100, z=0, state=010
Input History: 1111011000, z=0, state=000
Input History: 1110110000, z=0, state=000
Input History: 1101100001, z=0, state=001
Input History: 1011000011, z=0, state=001
Input History: 0110000110, z=0, state=011
Input History: 1100001100, z=0, state=010
Input History: 1000011001, z=0, state=110
Input History: 0000110010, z=0, state=011
Input History: 0001100100, z=0, state=010
Input History: 0011001001, z=0, state=110
Input History: 0110010010, z=0, state=011
Input History: 1100100100, z=0, state=010
Input History: 1001001001, z=0, state=110
Input History: 0010010010, z=0, state=011
Input History: 0100100100, z=0, state=010
Input History: 1001001001, z=0, state=110
Input History: 0010010011, z=1, state=100
Input History: 0100100111, z=0, state=001
Input History: 1001001110, z=0, state=011
Input History: 0010011100, z=0, state=010
Input History: 0100111000, z=0, state=000
Input History: 1001110001, z=0, state=001
Input History: 0011100010, z=0, state=011
Input History: 0111000100, z=0, state=010
Input History: 1110001001, z=0, state=110
Input History: 1100010010, z=0, state=011
Input History: 1000100100, z=0, state=010
Input History: 0001001000, z=0, state=000
Input History: 0010010000, z=0, state=000
Input History: 0100100001, z=0, state=001
Input History: 1001000010, z=0, state=011
Input History: 0010000100, z=0, state=010
Input History: 0100001000, z=0, state=000
Input History: 1000010001, z=0, state=001
Input History: 0000100011, z=0, state=001
Input History: 0001000110, z=0, state=011
Input History: 0010001101, z=0, state=001
Input History: 0100011011, z=0, state=001
Input History: 1000110111, z=0, state=001
Input History: 0001101111, z=0, state=001
Input History: 0011011110, z=0, state=011
Input History: 0110111101, z=0, state=001
Input History: 1101111011, z=0, state=001
Input History: 1011110111, z=0, state=001
Input History: 0111101110, z=0, state=011
Input History: 1111011100, z=0, state=010
Input History: 1110111001, z=0, state=110
Input History: 1101110010, z=0, state=011
Input History: 1011100100, z=0, state=010
Input History: 0111001001, z=0, state=110
Input History: 1110010011, z=1, state=100
Input History: 1100100110, z=0, state=011
Input History: 1001001100, z=0, state=010
Input History: 0010011001, z=0, state=110
Input History: 0100110010, z=0, state=011
Input History: 1001100100, z=0, state=010
Input History: 0011001001, z=0, state=110
Input History: 0110010010, z=0, state=011
Input History: 1100100101, z=0, state=001
Input History: 1001001011, z=0, state=001
Input History: 0010010110, z=0, state=011
Input History: 0100101101, z=0, state=001
Input History: 1001011010, z=0, state=011
Input History: 0010110101, z=0, state=001
Input History: 0101101010, z=0, state=011
Input History: 1011010100, z=0, state=010
Input History: 0110101001, z=0, state=110
Input History: 1101010010, z=0, state=011
Input History: 1010100100, z=0, state=010
Input History: 0101001000, z=0, state=000
Input History: 1010010001, z=0, state=001
Input History: 0100100011, z=0, state=001
Input History: 1001000111, z=0, state=001
Input History: 0010001111, z=0, state=001
Input History: 0100011111, z=0, state=001
Input History: 1000111110, z=0, state=011
Input History: 0001111101, z=0, state=001
Input History: 0011111011, z=0, state=001
Input History: 0111110111, z=0, state=001
Input History: 1111101110, z=0, state=011
Input History: 1111011100, z=0, state=010
Input History: 1110111000, z=0, state=000
Input History: 1101110000, z=0, state=000
Input History: 1011100000, z=0, state=000
Input History: 0111000000, z=0, state=000
Input History: 1110000001, z=0, state=001
Input History: 1100000011, z=0, state=001
Input History: 1000000111, z=0, state=001
Input History: 0000001111, z=0, state=001
Input History: 0000011111, z=0, state=001
Input History: 0000111111, z=0, state=001
Input History: 0001111111, z=0, state=001
Input History: 0011111110, z=0, state=011
Input History: 0111111101, z=0, state=001
Input History: 1111111011, z=0, state=001
Input History: 1111110111, z=0, state=001
Input History: 1111101111, z=0, state=001
Input History: 1111011111, z=0, state=001
Input History: 1110111111, z=0, state=001
Input History: 1101111111, z=0, state=001
Input History: 1011111111, z=0, state=001
Input History: 0111111110, z=0, state=011
Input History: 1111111100, z=0, state=010
Input History: 1111111001, z=0, state=110
Input History: 1111110011, z=1, state=100
Input History: 1111100110, z=0, state=011
Input History: 1111001100, z=0, state=010
Input History: 1110011000, z=0, state=000
Input History: 1100110000, z=0, state=000
Input History: 1001100001, z=0, state=001
Input History: 0011000010, z=0, state=011
Input History: 0110000100, z=0, state=010
Input History: 1100001000, z=0, state=000
Input History: 1000010000, z=0, state=000
Input History: 0000100000, z=0, state=000
Input History: 0001000000, z=0, state=000
Input History: 0010000001, z=0, state=001
Input History: 0100000010, z=0, state=011
Input History: 1000000100, z=0, state=010
Input History: 0000001001, z=0, state=110
Input History: 0000010010, z=0, state=011
Input History: 0000100100, z=0, state=010
Input History: 0001001000, z=0, state=000
Input History: 0010010000, z=0, state=000
Input History: 0100100001, z=0, state=001
Input History: 1001000011, z=0, state=001
Input History: 0010000111, z=0, state=001
Input History: 0100001111, z=0, state=001
Input History: 1000011111, z=0, state=001
Input History: 0000111110, z=0, state=011
Input History: 0001111101, z=0, state=001
Input History: 0011111011, z=0, state=001
Input History: 0111110111, z=0, state=001
Input History: 1111101110, z=0, state=011
Input History: 1111011101, z=0, state=001
Input History: 1110111010, z=0, state=011
Input History: 1101110100, z=0, state=010
Input History: 1011101001, z=0, state=110
Input History: 0111010011, z=1, state=100
Input History: 1110100110, z=0, state=011
Input History: 1101001101, z=0, state=001
Input History: 1010011010, z=0, state=011
Input History: 0100110100, z=0, state=010
Input History: 1001101001, z=0, state=110
Input History: 0011010010, z=0, state=011
Input History: 0110100100, z=0, state=010
Input History: 1101001000, z=0, state=000
Input History: 1010010000, z=0, state=000
Input History: 0100100001, z=0, state=001
Input History: 1001000011, z=0, state=001
Input History: 0010000111, z=0, state=001
Input History: 0100001111, z=0, state=001
Input History: 1000011110, z=0, state=011
Input History: 0000111101, z=0, state=001
Input History: 0001111011, z=0, state=001
Input History: 0011110111, z=0, state=001
Input History: 0111101111, z=0, state=001
Input History: 1111011111, z=0, state=001
Input History: 1110111111, z=0, state=001
Input History: 1101111111, z=0, state=001
Input History: 1011111110, z=0, state=011
Input History: 0111111101, z=0, state=001
Input History: 1111111010, z=0, state=011
Input History: 1111110101, z=0, state=001
Input History: 1111101010, z=0, state=011
Input History: 1111010100, z=0, state=010
Input History: 1110101001, z=0, state=110
Input History: 1101010010, z=0, state=011
Input History: 1010100100, z=0, state=010
Input History: 0101001000, z=0, state=000
Input History: 1010010000, z=0, state=000
Input History: 0100100000, z=0, state=000
Input History: 1001000001, z=0, state=001
Input History: 0010000010, z=0, state=011
Input History: 0100000100, z=0, state=010
Input History: 1000001000, z=0, state=000
Input History: 0000010000, z=0, state=000
Input History: 0000100000, z=0, state=000
Input History: 0001000000, z=0, state=000
Input History: 0010000001, z=0, state=001
Input History: 0100000010, z=0, state=011
Input History: 1000000101, z=0, state=001
Input History: 0000001010, z=0, state=011
Input History: 0000010100, z=0, state=010
Input History: 0000101001, z=0, state=110
Input History: 0001010010, z=0, state=011
Input History: 0010100101, z=0, state=001
Input History: 0101001011, z=0, state=001
Input History: 1010010110, z=0, state=011
Input History: 0100101101, z=0, state=001
Input History: 1001011010, z=0, state=011
Input History: 0010110101, z=0, state=001
Input History: 0101101010, z=0, state=011
Input History: 1011010100, z=0, state=010
Input History: 0110101000, z=0, state=000
Input History: 1101010000, z=0, state=000
Input History: 1010100001, z=0, state=001
Input History: 0101000010, z=0, state=011
Input History: 1010000101, z=0, state=001
Input History: 0100001010, z=0, state=011
Input History: 1000010101, z=0, state=001
Input History: 0000101011, z=0, state=001
Input History: 0001010110, z=0, state=011
Input History: 0010101101, z=0, state=001
Input History: 0101011010, z=0, state=011
Input History: 1010110101, z=0, state=001
Input History: 0101101011, z=0, state=001
Input History: 1011010111, z=0, state=001
Input History: 0110101110, z=0, state=011
Input History: 1101011101, z=0, state=001
Input History: 1010111011, z=0, state=001
Input History: 0101110110, z=0, state=011
Input History: 1011101100, z=0, state=010
Input History: 0111011001, z=0, state=110
Input History: 1110110011, z=1, state=100
Input History: 1101100110, z=0, state=011
Input History: 1011001100, z=0, state=010
Input History: 0110011001, z=0, state=110
Input History: 1100110011, z=1, state=100
Input History: 1001100110, z=0, state=011
Input History: 0011001100, z=0, state=010
Input History: 0110011001, z=0, state=110
Input History: 1100110010, z=0, state=011
Input History: 1001100100, z=0, state=010
Input History: 0011001001, z=0, state=110
Input History: 0110010011, z=1, state=100
Input History: 1100100110, z=0, state=011
Input History: 1001001100, z=0, state=010
Input History: 0010011001, z=0, state=110
Input History: 0100110010, z=0, state=011
Input History: 1001100100, z=0, state=010
Input History: 0011001001, z=0, state=110
Input History: 0110010011, z=1, state=100
Input History: 1100100110, z=0, state=011
Input History: 1001001101, z=0, state=001
Input History: 0010011010, z=0, state=011
Input History: 0100110101, z=0, state=001
Input History: 1001101011, z=0, state=001
Input History: 0011010110, z=0, state=011
Input History: 0110101101, z=0, state=001
Input History: 1101011011, z=0, state=001
Input History: 1010110111, z=0, state=001
Input History: 0101101110, z=0, state=011
Input History: 1011011101, z=0, state=001
Input History: 0110111011, z=0, state=001
Input History: 1101110111, z=0, state=001
Input History: 1011101110, z=0, state=011
Input History: 0111011100, z=0, state=010
Input History: 1110111001, z=0, state=110
Input History: 1101110010, z=0, state=011
Input History: 1011100100, z=0, state=010
Input History: 0111001001, z=0, state=110
Input History: 1110010010, z=0, state=011
Input History: 1100100100, z=0, state=010
Input History: 1001001001, z=0, state=110
Input History: 0010010011, z=1, state=100
Input History: 0100100110, z=0, state=011
Input History: 1001001101, z=0, state=001
Input History: 0010011010, z=0, state=011
Input History: 0100110101, z=0, state=001
Input History: 1001101011, z=0, state=001
Input History: 0011010111, z=0, state=001
Input History: 0110101111, z=0, state=001
Input History: 1101011110, z=0, state=011
Input History: 1010111100, z=0, state=010
Input History: 0101111001, z=0, state=110
Input History: 1011110010, z=0, state=011
Input History: 0111100101, z=0, state=001
Input History: 1111001010, z=0, state=011
Input History: 1110010101, z=0, state=001
Input History: 1100101011, z=0, state=001
Input History: 1001010110, z=0, state=011
Input History: 0010101100, z=0, state=010
Input History: 0101011001, z=0, state=110
Input History: 1010110011, z=1, state=100
Input History: 0101100111, z=0, state=001
Input History: 1011001110, z=0, state=011
Input History: 0110011100, z=0, state=010
Input History: 1100111001, z=0, state=110
Input History: 1001110010, z=0, state=011
Input History: 0011100100, z=0, state=010
Input History: 0111001001, z=0, state=110
Input History: 1110010011, z=1, state=100
Input History: 1100100111, z=0, state=001
Input History: 1001001110, z=0, state=011
Input History: 0010011101, z=0, state=001
Input History: 0100111011, z=0, state=001
Input History: 1001110110, z=0, state=011
Input History: 0011101100, z=0, state=010
Input History: 0111011000, z=0, state=000
Input History: 1110110001, z=0, state=001
Input History: 1101100011, z=0, state=001
Input History: 1011000111, z=0, state=001
Input History: 0110001110, z=0, state=011
Input History: 1100011100, z=0, state=010
Input History: 1000111000, z=0, state=000
Input History: 0001110001, z=0, state=001
Input History: 0011100011, z=0, state=001
Input History: 0111000111, z=0, state=001
Input History: 1110001111, z=0, state=001
Input History: 1100011110, z=0, state=011
Input History: 1000111101, z=0, state=001
Input History: 0001111011, z=0, state=001
Input History: 0011110111, z=0, state=001
Input History: 0111101111, z=0, state=001
Input History: 1111011111, z=0, state=001
Input History: 1110111111, z=0, state=001
Input History: 1101111111, z=0, state=001
Input History: 1011111110, z=0, state=011
Input History: 0111111101, z=0, state=001
Input History: 1111111010, z=0, state=011
Input History: 1111110100, z=0, state=010
Input History: 1111101000, z=0, state=000
Input History: 1111010001, z=0, state=001
Input History: 1110100011, z=0, state=001
Input History: 1101000111, z=0, state=001
Input History: 1010001111, z=0, state=001
Input History: 0100011111, z=0, state=001
Input History: 1000111111, z=0, state=001
Input History: 0001111111, z=0, state=001
Input History: 0011111111, z=0, state=001
Input History: 0111111111, z=0, state=001
Input History: 1111111110, z=0, state=011
Input History: 1111111100, z=0, state=010
Input History: 1111111000, z=0, state=000
Input History: 1111110001, z=0, state=001
Input History: 1111100010, z=0, state=011
Input History: 1111000100, z=0, state=010
Input History: 1110001000, z=0, state=000
Input History: 1100010001, z=0, state=001
Input History: 1000100011, z=0, state=001
Input History: 0001000110, z=0, state=011
Input History: 0010001100, z=0, state=010
Input History: 0100011000, z=0, state=000
Input History: 1000110001, z=0, state=001
Input History: 0001100011, z=0, state=001
Input History: 0011000110, z=0, state=011
Input History: 0110001101, z=0, state=001
Input History: 1100011010, z=0, state=011
Input History: 1000110101, z=0, state=001
Input History: 0001101010, z=0, state=011
Input History: 0011010100, z=0, state=010
Input History: 0110101000, z=0, state=000
Input History: 1101010001, z=0, state=001
Input History: 1010100011, z=0, state=001
Input History: 0101000111, z=0, state=001
Input History: 1010001110, z=0, state=011
Input History: 0100011101, z=0, state=001
Input History: 1000111010, z=0, state=011
Input History: 0001110101, z=0, state=001
Input History: 0011101010, z=0, state=011
Input History: 0111010101, z=0, state=001
Input History: 1110101011, z=0, state=001
Input History: 1101010110, z=0, state=011
Input History: 1010101100, z=0, state=010
Input History: 0101011000, z=0, state=000
Input History: 1010110000, z=0, state=000
Input History: 0101100001, z=0, state=001
Input History: 1011000011, z=0, state=001
Input History: 0110000110, z=0, state=011
Input History: 1100001100, z=0, state=010
Input History: 1000011001, z=0, state=110
Input History: 0000110010, z=0, state=011
Input History: 0001100101, z=0, state=001
Input History: 0011001010, z=0, state=011
Input History: 0110010101, z=0, state=001
Input History: 1100101011, z=0, state=001
Input History: 1001010110, z=0, state=011
Input History: 0010101101, z=0, state=001
Input History: 0101011011, z=0, state=001
Input History: 1010110110, z=0, state=011
Input History: 0101101100, z=0, state=010
Input History: 1011011000, z=0, state=000
Input History: 0110110000, z=0, state=000
Input History: 1101100001, z=0, state=001
Input History: 1011000011, z=0, state=001
Input History: 0110000111, z=0, state=001
Input History: 1100001111, z=0, state=001
Input History: 1000011111, z=0, state=001
Input History: 0000111110, z=0, state=011
Input History: 0001111100, z=0, state=010
Input History: 0011111000, z=0, state=000
Input History: 0111110000, z=0, state=000
Input History: 1111100000, z=0, state=000
Input History: 1111000000, z=0, state=000
Input History: 1110000000, z=0, state=000
Input History: 1100000001, z=0, state=001
Input History: 1000000011, z=0, state=001
Input History: 0000000111, z=0, state=001
Input History: 0000001111, z=0, state=001
Input History: 0000011111, z=0, state=001
Input History: 0000111111, z=0, state=001
Input History: 0001111111, z=0, state=001
Input History: 0011111110, z=0, state=011
Input History: 0111111100, z=0, state=010
Input History: 1111111000, z=0, state=000
Input History: 1111110000, z=0, state=000
Input History: 1111100000, z=0, state=000
Input History: 1111000000, z=0, state=000
Input History: 1110000001, z=0, state=001
Input History: 1100000011, z=0, state=001
Input History: 1000000110, z=0, state=011
Input History: 0000001101, z=0, state=001
Input History: 0000011010, z=0, state=011
Input History: 0000110101, z=0, state=001
Input History: 0001101011, z=0, state=001
Input History: 0011010111, z=0, state=001
Input History: 0110101110, z=0, state=011
Input History: 1101011100, z=0, state=010
Input History: 1010111000, z=0, state=000
Input History: 0101110001, z=0, state=001
Input History: 1011100011, z=0, state=001
Input History: 0111000110, z=0, state=011
Input History: 1110001101, z=0, state=001
Input History: 1100011010, z=0, state=011
Input History: 1000110100, z=0, state=010
Input History: 0001101000, z=0, state=000
Input History: 0011010000, z=0, state=000
Input History: 0110100000, z=0, state=000
Input History: 1101000000, z=0, state=000
Input History: 1010000001, z=0, state=001
Input History: 0100000010, z=0, state=011
Input History: 1000000100, z=0, state=010
Input History: 0000001001, z=0, state=110
Input History: 0000010010, z=0, state=011
Input History: 0000100100, z=0, state=010
Input History: 0001001001, z=0, state=110
Input History: 0010010011, z=1, state=100
Input History: 0100100111, z=0, state=001
Input History: 1001001110, z=0, state=011
Input History: 0010011100, z=0, state=010
Input History: 0100111001, z=0, state=110
Input History: 1001110011, z=1, state=100
Input History: 0011100111, z=0, state=001
Input History: 0111001111, z=0, state=001
Input History: 1110011110, z=0, state=011
Input History: 1100111101, z=0, state=001
Input History: 1001111011, z=0, state=001
Input History: 0011110111, z=0, state=001
Input History: 0111101111, z=0, state=001
Input History: 1111011110, z=0, state=011
Input History: 1110111101, z=0, state=001
Input History: 1101111010, z=0, state=011
Input History: 1011110100, z=0, state=010
Input History: 0111101001, z=0, state=110
Input History: 1111010010, z=0, state=011
Input History: 1110100100, z=0, state=010
Input History: 1101001001, z=0, state=110
Input History: 1010010010, z=0, state=011
Input History: 0100100100, z=0, state=010
Input History: 1001001000, z=0, state=000
Input History: 0010010000, z=0, state=000
Input History: 0100100000, z=0, state=000
Input History: 1001000000, z=0, state=000
Input History: 0010000001, z=0, state=001
Input History: 0100000011, z=0, state=001
Input History: 1000000110, z=0, state=011
Input History: 0000001100, z=0, state=010
Input History: 0000011001, z=0, state=110
Input History: 0000110011, z=1, state=100
Input History: 0001100111, z=0, state=001
Input History: 0011001111, z=0, state=001
Input History: 0110011111, z=0, state=001
Input History: 1100111111, z=0, state=001
Input History: 1001111111, z=0, state=001
Input History: 0011111110, z=0, state=011
Input History: 0111111101, z=0, state=001
Input History: 1111111010, z=0, state=011
Input History: 1111110100, z=0, state=010
Input History: 1111101000, z=0, state=000
Input History: 1111010001, z=0, state=001
Input History: 1110100011, z=0, state=001
Input History: 1101000110, z=0, state=011
Input History: 1010001101, z=0, state=001
Input History: 0100011011, z=0, state=001
Input History: 1000110111, z=0, state=001
Input History: 0001101110, z=0, state=011
Input History: 0011011100, z=0, state=010
Input History: 0110111000, z=0, state=000
Input History: 1101110000, z=0, state=000
Input History: 1011100001, z=0, state=001
Input History: 0111000011, z=0, state=001
Input History: 1110000111, z=0, state=001
Input History: 1100001110, z=0, state=011
Input History: 1000011101, z=0, state=001
Input History: 0000111010, z=0, state=011
Input History: 0001110100, z=0, state=010
Input History: 0011101000, z=0, state=000
Input History: 0111010000, z=0, state=000
Input History: 1110100000, z=0, state=000
Input History: 1101000000, z=0, state=000
Input History: 1010000000, z=0, state=000
Input History: 0100000001, z=0, state=001
Input History: 1000000010, z=0, state=011
Input History: 0000000100, z=0, state=010
Input History: 0000001001, z=0, state=110
Input History: 0000010011, z=1, state=100
Input History: 0000100111, z=0, state=001
Input History: 0001001111, z=0, state=001
Input History: 0010011111, z=0, state=001
Input History: 0100111110, z=0, state=011
Input History: 1001111100, z=0, state=010
Input History: 0011111000, z=0, state=000
Input History: 0111110000, z=0, state=000
Input History: 1111100001, z=0, state=001
Input History: 1111000011, z=0, state=001
Input History: 1110000110, z=0, state=011
Input History: 1100001100, z=0, state=010
Input History: 1000011001, z=0, state=110
Input History: 0000110011, z=1, state=100
Input History: 0001100111, z=0, state=001
Input History: 0011001111, z=0, state=001
Input History: 0110011111, z=0, state=001
Input History: 1100111110, z=0, state=011
Input History: 1001111100, z=0, state=010
Input History: 0011111000, z=0, state=000
Input History: 0111110001, z=0, state=001
Input History: 1111100010, z=0, state=011
Input History: 1111000101, z=0, state=001
Input History: 1110001010, z=0, state=011
Input History: 1100010100, z=0, state=010
Input History: 1000101000, z=0, state=000
Input History: 0001010000, z=0, state=000
Input History: 0010100000, z=0, state=000
Input History: 0101000001, z=0, state=001
Input History: 1010000010, z=0, state=011
Input History: 0100000101, z=0, state=001
Input History: 1000001011, z=0, state=001
Input History: 0000010110, z=0, state=011
Input History: 0000101101, z=0, state=001
Input History: 0001011011, z=0, state=001
Input History: 0010110110, z=0, state=011
Input History: 0101101101, z=0, state=001
Input History: 1011011010, z=0, state=011
Input History: 0110110101, z=0, state=001
Input History: 1101101011, z=0, state=001
Input History: 1011010110, z=0, state=011
Input History: 0110101100, z=0, state=010
Input History: 1101011001, z=0, state=110
Input History: 1010110011, z=1, state=100
Input History: 0101100110, z=0, state=011
Input History: 1011001100, z=0, state=010
Input History: 0110011000, z=0, state=000
Input History: 1100110000, z=0, state=000
Input History: 1001100001, z=0, state=001
Input History: 0011000011, z=0, state=001
Input History: 0110000111, z=0, state=001
Input History: 1100001110, z=0, state=011
Input History: 1000011100, z=0, state=010
Input History: 0000111001, z=0, state=110
Input History: 0001110011, z=1, state=100
Input History: 0011100111, z=0, state=001
Input History: 0111001111, z=0, state=001
Input History: 1110011110, z=0, state=011
Input History: 1100111100, z=0, state=010
Input History: 1001111001, z=0, state=110
Input History: 0011110011, z=1, state=100
Input History: 0111100110, z=0, state=011
Input History: 1111001100, z=0, state=010
Input History: 1110011001, z=0, state=110
Input History: 1100110010, z=0, state=011
Input History: 1001100101, z=0, state=001
Input History: 0011001010, z=0, state=011
Input History: 0110010101, z=0, state=001
Input History: 1100101011, z=0, state=001
Input History: 1001010110, z=0, state=011
Input History: 0010101100, z=0, state=010
Input History: 0101011000, z=0, state=000
Input History: 1010110000, z=0, state=000
Input History: 0101100000, z=0, state=000
Input History: 1011000001, z=0, state=001
Input History: 0110000010, z=0, state=011
Input History: 1100000101, z=0, state=001
Input History: 1000001010, z=0, state=011
Input History: 0000010100, z=0, state=010
Input History: 0000101000, z=0, state=000
Input History: 0001010001, z=0, state=001
Input History: 0010100010, z=0, state=011
Input History: 0101000100, z=0, state=010
Input History: 1010001001, z=0, state=110
Input History: 0100010010, z=0, state=011
Input History: 1000100101, z=0, state=001
Input History: 0001001011, z=0, state=001
Input History: 0010010111, z=0, state=001
Input History: 0100101111, z=0, state=001
Input History: 1001011111, z=0, state=001
Input History: 0010111110, z=0, state=011
Input History: 0101111101, z=0, state=001
Input History: 1011111011, z=0, state=001
Input History: 0111110110, z=0, state=011
Input History: 1111101100, z=0, state=010
Input History: 1111011001, z=0, state=110
Input History: 1110110010, z=0, state=011
Input History: 1101100101, z=0, state=001
Input History: 1011001011, z=0, state=001
Input History: 0110010111, z=0, state=001
Input History: 1100101111, z=0, state=001
Input History: 1001011111, z=0, state=001
Input History: 0010111110, z=0, state=011
Input History: 0101111101, z=0, state=001
Input History: 1011111010, z=0, state=011
Input History: 0111110101, z=0, state=001
Input History: 1111101010, z=0, state=011
Input History: 1111010101, z=0, state=001
Input History: 1110101011, z=0, state=001
Input History: 1101010110, z=0, state=011
Input History: 1010101100, z=0, state=010
Input History: 0101011000, z=0, state=000
Input History: 1010110000, z=0, state=000
Input History: 0101100001, z=0, state=001
